[
    {
        "key": "cmd+k",
        "command": "workbench.action.terminal.clear",
        "when": "terminalFocus"
    },
    {
        "key": "shift+up",
        "command": "workbench.action.toggleMaximizedPanel",
        "when": "terminalFocus"
    },

    {
        "key": "ctrl+alt+cmd+right",
        "command": "cursorWordPartRight",
        "when": "textInputFocus"
    },
    {
        "key": "ctrl+cmd+shift+right",
        "command": "cursorWordPartRightSelect",
        "when": "textInputFocus"
    },
    {
        "key": "ctrl+alt+cmd+left",
        "command": "cursorWordPartStartLeft",
        "when": "textInputFocus"
    },
    {
        "key": "ctrl+cmd+shift+left",
        "command": "cursorWordPartStartLeftSelect",
        "when": "textInputFocus"
    },
    {
        "key": "ctrl+alt+cmd+backspace",
        "command": "deleteWordPartLeft",
        "when": "textInputFocus && !editorReadonly"
    },
    {
        "key": "ctrl+alt+cmd+delete",
        "command": "deleteWordPartRight",
        "when": "textInputFocus && !editorReadonly"
    },
    {
        "key": "ctrl+shift+cmd+down",
        "command": "workbench.action.terminal.focusNext"
    },
    {
        "key": "s",
        "command": "git.stageSelectedRanges",
        "when": "isInDiffEditor && editorTextFocus"
    },
    {
        "key": "u",
        "command": "git.unstageSelectedRanges",
        "when": "isInDiffEditor && editorTextFocus"
    },
    {
        "key": "r",
        "command": "git.revertSelectedRanges",
        "when": "isInDiffEditor && editorTextFocus"
    }
]
